%YAML 1.1
%TAG !u! tag:unity3d.com,2011:
--- !u!114 &11400000
MonoBehaviour:
  m_ObjectHideFlags: 0
  m_CorrespondingSourceObject: {fileID: 0}
  m_PrefabInstance: {fileID: 0}
  m_PrefabAsset: {fileID: 0}
  m_GameObject: {fileID: 0}
  m_Enabled: 1
  m_EditorHideFlags: 0
  m_Script: {fileID: 11500000, guid: 347454c0a4038d44ba43f07275bfe908, type: 3}
  m_Name: CookConfig
  m_EditorClassIdentifier: 
  menuConfigs:
  - name: "\u767D\u5F00\u6C34"
    desc: 
    costTime: 5
    materials: []
    changeInfection: 0
    changeEMO: 5
    changeHealth: 4
    changeMoney: 0
  - name: "\u6E05\u7092\u5377\u5FC3\u83DC"
    desc: 
    costTime: 30
    materials:
    - itemName: "\u5377\u5FC3\u83DC"
      amount: 1
    changeInfection: 0
    changeEMO: -5
    changeHealth: 15
    changeMoney: 0
  - name: "\u6E05\u7092\u80E1\u841D\u535C"
    desc: 
    costTime: 30
    materials:
    - itemName: "\u732A\u8089"
      amount: 1
    - itemName: "\u5377\u5FC3\u83DC"
      amount: 1
    changeInfection: 0
    changeEMO: -4
    changeHealth: 15
    changeMoney: 0
  - name: "\u7EA2\u70E7\u8304\u5B50"
    desc: "\u4E0B\u996D\u795E\u5668\uFF0C\u548C\u767D\u7C73\u996D\u662F\u7EDD\u914D\u3002"
    costTime: 40
    materials:
    - itemName: "\u8304\u5B50"
      amount: 1
    changeInfection: 0
    changeEMO: -10
    changeHealth: 30
    changeMoney: 0
  - name: "\u5FAE\u6CE2\u7089\u70E4\u571F\u8C46"
    desc: 
    costTime: 30
    materials:
    - itemName: "\u571F\u8C46"
      amount: 1
    changeInfection: 0
    changeEMO: -6
    changeHealth: 10
    changeMoney: 0
  - name: "\u7092\u9752\u83DC"
    desc: "\u5C31\u662F\u666E\u666E\u901A\u901A\u4F46\u662F\u5F88\u5229\u53E3\u7684\u7092\u9752\u83DC"
    costTime: 20
    materials:
    - itemName: "\u4E0A\u6D77\u9752"
      amount: 1
    changeInfection: 0
    changeEMO: -20
    changeHealth: 20
    changeMoney: 0
  - name: "\u756A\u8304\u7092\u9E21\u86CB"
    desc: "\u8425\u517B\u53C8\u597D\u5403\u7684\u756A\u8304\u7092\u86CB\uFF0C\u662F\u5BB6\u5E38\u83DC\u754C\u5C79\u7ACB\u4E0D\u5012\u7684\u738B\u724C\u3002"
    costTime: 30
    materials:
    - itemName: "\u756A\u8304"
      amount: 1
    - itemName: "\u9E21\u86CB"
      amount: 2
    changeInfection: 0
    changeEMO: -30
    changeHealth: 50
    changeMoney: 0
  - name: "\u7EA2\u70E7\u8089"
    desc: "\u9999\u751C\u8F6F\u7CEF\uFF0C\u80A5\u800C\u4E0D\u817B\u7684\u7EA2\u70E7\u8089\uFF0C\u662F\u5C01\u63A7\u671F\u95F4\u629A\u6170\u5FC3\u7075\u7684\u4E00\u5242\u826F\u836F\u3002"
    costTime: 120
    materials:
    - itemName: "\u732A\u8089"
      amount: 2
    - itemName: "\u9E21\u86CB"
      amount: 2
    changeInfection: 0
    changeEMO: -30
    changeHealth: 50
    changeMoney: 0
  - name: "\u725B\u6392"
    desc: "\u9EC4\u6CB9\u6D53\u90C1\u7684\u9999\u6C14\u4E2D\uFF0C\u6ECB\u6ECB\u4F5C\u54CD\u7684\u714E\u70B8\u58F0\u4EFF\u4F5B\u4E00\u652F\u7F8E\u5999\u7684\u4EA4\u54CD\u4E50\u3002\u5C01\u63A7\u671F\u95F4\u82E5\u80FD\u5403\u4E0A\u4E00\u987F\u725B\u6392\uFF0C\u5927\u6982\u503C\u5F97\u53D1\u4E00\u6B21\u670B\u53CB\u5708\u5427\u3002"
    costTime: 20
    materials:
    - itemName: "\u725B\u8089"
      amount: 2
    changeInfection: 0
    changeEMO: -30
    changeHealth: 50
    changeMoney: 0
  - name: "\u51C9\u62CC\u4E09\u4E1D"
    desc: "\u5728\u7269\u8D44\u6709\u9650\u7684\u60C5\u51B5\u4E0B\uFF0C\u4E09\u4E1D\u53EF\u4EE5\u662F\u4EFB\u4F55\u80FD\u5207\u4E1D\u51C9\u62CC\u7684\u98DF\u6750\u3002"
    costTime: 20
    materials:
    - itemName: "\u80E1\u841D\u535C"
      amount: 1
    - itemName: "\u9EC4\u74DC"
      amount: 1
    - itemName: "\u571F\u8C46"
      amount: 1
    changeInfection: 0
    changeEMO: -10
    changeHealth: 30
    changeMoney: 0
  - name: "\u918B\u6E9C\u767D\u83DC"
    desc: "\u9178\u9178\u751C\u751C\u7684\u53E3\u611F\uFF0C\u6C64\u6C41\u8FD8\u80FD\u62CC\u996D\uFF0C\u662F\u600E\u4E48\u5403\u90FD\u4E0D\u4F1A\u817B\u7684\u4E00\u9053\u83DC\u3002"
    costTime: 20
    materials:
    - itemName: "\u767D\u83DC"
      amount: 1
    changeInfection: 0
    changeEMO: -10
    changeHealth: 30
    changeMoney: 0
  - name: "\u7CD6\u918B\u5C0F\u6392"
    desc: "\u9178\u9178\u751C\u751C\u7684\u53E3\u611F\uFF0C\u6C64\u6C41\u8FD8\u80FD\u62CC\u996D\uFF0C\u662F\u600E\u4E48\u5403\u90FD\u4E0D\u4F1A\u817B\u7684\u4E00\u9053\u83DC\u3002"
    costTime: 30
    materials:
    - itemName: "\u732A\u8089"
      amount: 2
    changeInfection: 0
    changeEMO: -10
    changeHealth: 30
    changeMoney: 0
  - name: "\u6E05\u7092\u897F\u5170\u82B1"
    desc: 
    costTime: 30
    materials:
    - itemName: "\u897F\u5170\u82B1"
      amount: 1
    changeInfection: 0
    changeEMO: -5
    changeHealth: 12
    changeMoney: 0
  - name: "\u4E0A\u6C64\u897F\u84DD\u82B1"
    desc: "\u6C64\u6C41\u6E05\u9999\u56DB\u6EA2\uFF0C\u897F\u84DD\u82B1\u72EC\u7279\u7684\u53E3\u611F\u8BA9\u4EBA\u6B32\u7F62\u4E0D\u80FD\u3002"
    costTime: 30
    materials:
    - itemName: "\u897F\u5170\u82B1"
      amount: 1
    - itemName: "\u732A\u8089"
      amount: 1
    changeInfection: 0
    changeEMO: -10
    changeHealth: 30
    changeMoney: 0
  - name: "\u8471\u6CB9\u9762"
    desc: "\u8F9B\u8F9B\u82E6\u82E6\u6C34\u57F9\u7684\u5C0F\u8471\uFF0C\u5F53\u7136\u662F\u8981\u7528\u6765\u505A\u8471\u6CB9\u9762\u5566\uFF01"
    costTime: 30
    materials:
    - itemName: "\u5C0F\u8471"
      amount: 1
    changeInfection: 0
    changeEMO: -10
    changeHealth: 30
    changeMoney: 0
  - name: "\u709D\u7092\u5377\u5FC3\u83DC"
    desc: 
    costTime: 30
    materials:
    - itemName: "\u732A\u8089"
      amount: 1
    - itemName: "\u5377\u5FC3\u83DC"
      amount: 1
    changeInfection: 0
    changeEMO: -10
    changeHealth: 30
    changeMoney: 0
