%YAML 1.1
%TAG !u! tag:unity3d.com,2011:
--- !u!114 &11400000
MonoBehaviour:
  m_ObjectHideFlags: 0
  m_CorrespondingSourceObject: {fileID: 0}
  m_PrefabInstance: {fileID: 0}
  m_PrefabAsset: {fileID: 0}
  m_GameObject: {fileID: 0}
  m_Enabled: 1
  m_EditorHideFlags: 0
  m_Script: {fileID: 11500000, guid: d55f803ee7d164945a1f352ed29b6a95, type: 3}
  m_Name: EventConfig
  m_EditorClassIdentifier: 
  events:
  - eventName: "\u62A2\u83DC"
    id: 
    eventType: 4
    costTime: 120
    desc: 
    changeInfection: 0
    changeEMO: 0
    changeHealth: -10
    changeMoney: -380
    beInterruptType: 3
    beInterruptEventType: 
    interruptOtherType: 3
    interruptOtherEventType: 
    emergencyProbability: 0
    addItemList: []
    oneDayTimes: -1
    limitMinHour: 6
    limitMaxHour: 8
  - eventName: "\u5DE5\u4F5C"
    id: 
    eventType: 1
    costTime: 180
    desc: "\u5DE5\u4F5C\u4E2D"
    changeInfection: 0
    changeEMO: 10
    changeHealth: -20
    changeMoney: 100
    beInterruptType: 0
    beInterruptEventType: 
    interruptOtherType: 3
    interruptOtherEventType: 
    emergencyProbability: 0.382
    addItemList: []
    oneDayTimes: 4
    limitMinHour: 0
    limitMaxHour: 24
  - eventName: "\u505A\u996D"
    id: 
    eventType: 0
    costTime: 30
    desc: "\u505A\u996D\u4E2D"
    changeInfection: 0
    changeEMO: -20
    changeHealth: -10
    changeMoney: 0
    beInterruptType: 0
    beInterruptEventType: 02000000
    interruptOtherType: 3
    interruptOtherEventType: 
    emergencyProbability: 0.203
    addItemList: []
    oneDayTimes: -1
    limitMinHour: 0
    limitMaxHour: 24
  - eventName: "\u6574\u7406\u51B0\u7BB1"
    id: 
    eventType: 5
    costTime: 10
    desc: 
    changeInfection: 0
    changeEMO: 0
    changeHealth: -5
    changeMoney: 0
    beInterruptType: 3
    beInterruptEventType: 
    interruptOtherType: 3
    interruptOtherEventType: 
    emergencyProbability: 0
    addItemList: []
    oneDayTimes: -1
    limitMinHour: 0
    limitMaxHour: 24
  - eventName: "\u7761\u89C9"
    id: 
    eventType: 3
    costTime: 480
    desc: "\u7761\u89C9\u4E2D"
    changeInfection: 0
    changeEMO: -50
    changeHealth: 60
    changeMoney: 0
    beInterruptType: 0
    beInterruptEventType: 
    interruptOtherType: 3
    interruptOtherEventType: 
    emergencyProbability: 0.5
    addItemList: []
    oneDayTimes: -1
    limitMinHour: 0
    limitMaxHour: 24
  - eventName: "\u8EBA\u5E73"
    id: 
    eventType: 7
    costTime: 30
    desc: "\u8EBA"
    changeInfection: 0
    changeEMO: -10
    changeHealth: -5
    changeMoney: 0
    beInterruptType: 0
    beInterruptEventType: 
    interruptOtherType: 0
    interruptOtherEventType: 
    emergencyProbability: 0.503
    addItemList: []
    oneDayTimes: -1
    limitMinHour: 0
    limitMaxHour: 24
  - eventName: "\u73A9\u624B\u673A"
    id: 
    eventType: 7
    costTime: 30
    desc: "\u6478\u9C7C\u4E2D"
    changeInfection: 0
    changeEMO: -15
    changeHealth: -5
    changeMoney: 0
    beInterruptType: 3
    beInterruptEventType: 
    interruptOtherType: 0
    interruptOtherEventType: 
    emergencyProbability: 0.4
    addItemList: []
    oneDayTimes: -1
    limitMinHour: 0
    limitMaxHour: 24
  - eventName: "\u5A31\u4E50"
    id: 
    eventType: 6
    costTime: 120
    desc: "\u5A31\u4E50\u4E2D"
    changeInfection: 0
    changeEMO: -30
    changeHealth: -10
    changeMoney: 0
    beInterruptType: 3
    beInterruptEventType: 
    interruptOtherType: 0
    interruptOtherEventType: 
    emergencyProbability: 0.402
    addItemList: []
    oneDayTimes: -1
    limitMinHour: 0
    limitMaxHour: 24
  - eventName: "\u9694\u79BB14\u5929"
    id: 
    eventType: 8
    costTime: 20160
    desc: "\u9694\u79BB14\u5929\u4E2D"
    changeInfection: 0
    changeEMO: 60
    changeHealth: 60
    changeMoney: 0
    beInterruptType: 3
    beInterruptEventType: 
    interruptOtherType: 3
    interruptOtherEventType: 
    emergencyProbability: 0
    addItemList: []
    oneDayTimes: -1
    limitMinHour: 0
    limitMaxHour: 24
  - eventName: "\u89E3\u5C01"
    id: 
    eventType: 9
    costTime: 99999999
    desc: "\u89E3\u5C01\u4E86"
    changeInfection: 0
    changeEMO: 0
    changeHealth: 0
    changeMoney: 0
    beInterruptType: 3
    beInterruptEventType: 
    interruptOtherType: 3
    interruptOtherEventType: 
    emergencyProbability: 0
    addItemList: []
    oneDayTimes: -1
    limitMinHour: 0
    limitMaxHour: 24
  - eventName: "\u7A81\u53D1\u4E8B\u4EF6-\u5206\u53D1\u7269\u8D44"
    id: 
    eventType: 2
    costTime: 20
    desc: "\u508D\u665A\u65F6\u5206\uFF0C\u4F60\u5403\u5B8C\u996D\u51C6\u5907\u5728\u6C99\u53D1\u4E0A\u73A9\u4F1A\u513F\u624B\u673A\uFF0C\u770B\u5230\u56E2\u957F\u6B63\u5728\u7FA4\u91CC\u6C42\u52A9\uFF0C\u5E0C\u671B\u6709\u4EBA\u80FD\u5E2E\u5FD9\u53BB\u697C\u4E0B\u5206\u53D1\u524D\u51E0\u65E5\u56E2\u7684\u6C34\u3002\u4F60\u60F3\u4E86\u60F3\uFF0C\u5728\u7FA4\u91CC\u56DE\u4E86\u4E00\u53E5\u201C\u6211\u6765\u201D\uFF0C\u7136\u540E\u5168\u526F\u6B66\u88C5\u4E0B\u4E86\u697C\u3002"
    changeInfection: 0.01
    changeEMO: 30
    changeHealth: 0
    changeMoney: 0
    beInterruptType: 3
    beInterruptEventType: 
    interruptOtherType: 0
    interruptOtherEventType: 
    emergencyProbability: 0.2
    addItemList: []
    oneDayTimes: -1
    limitMinHour: 0
    limitMaxHour: 24
  - eventName: "\u7A81\u53D1\u4E8B\u4EF6-\u5FD8\u5173\u95F9\u949F"
    id: 
    eventType: 2
    costTime: 0
    desc: "\u613F\uFF0C\u4E0D\u662F\u5FD8\u8BB0\u8C03\u6574\u95F9\u949F\u65F6\u95F4\uFF0C\u5C31\u662F\u751F\u7269\u949F\u4E0D\u5141\u8BB8\u3002\u6B64\u523B\u662F\u5C5E\u4E8E\u524D\u8005\u3002\uFF0C\u4F46\u5F88\u4E0D\u5E78\uFF0C\u5C01\u63A7\u81F3\u4ECA\u4F60\u4ECE\u672A\u5982\u613F\uFF0C\u4E0D\u662F\u5FD8\u8BB0\u8C03\u6574\u95F9\u949F\u65F6\u95F4\uFF0C\u5C31\u662F\u751F\u7269\u949F\u4E0D\u5141\u8BB8\u3002\u6B64\u523B\u662F\u5C5E\u4E8E\u524D\u8005\u3002"
    changeInfection: 0
    changeEMO: 30
    changeHealth: 0
    changeMoney: 0
    beInterruptType: 3
    beInterruptEventType: 
    interruptOtherType: 1
    interruptOtherEventType: 03000000
    emergencyProbability: 0.5
    addItemList: []
    oneDayTimes: -1
    limitMinHour: 0
    limitMaxHour: 24
  - eventName: "\u7A81\u53D1\u4E8B\u4EF6-\u5FD8\u8BB0\u5403\u996D"
    id: 
    eventType: 2
    costTime: 20
    desc: "\u7ED3\u675F\u4E86\u624B\u4E0A\u7684\u7D27\u6025\u5DE5\u4F5C\uFF0C\u4F60\u89C9\u5F97\u81EA\u5DF1\u7EC8\u4E8E\u80FD\u597D\u597D\u4F11\u606F\u4E00\u4F1A\u513F\u4E86\uFF0C\u521A\u5750\u4E0B\uFF0C\u809A\u5B50\u4FBF\u53D1\u51FA\u4E86\u201C\u5495\u5495\u201D\u7684\u58F0\u97F3\uFF0C\u4F60\u8FD9\u624D\u60F3\u8D77\u6765\u81EA\u5DF1\u8FD8\u6CA1\u5403\u996D\uFF0C\u53EA\u597D\u62D6\u7740\u75B2\u60EB\u7684\u8EAB\u8EAF\u8D70\u5411\u53A8\u623F\u3002"
    changeInfection: 0.1
    changeEMO: 15
    changeHealth: -10
    changeMoney: 0
    beInterruptType: 3
    beInterruptEventType: 
    interruptOtherType: 1
    interruptOtherEventType: 010000000600000007000000
    emergencyProbability: 0.447
    addItemList: []
    oneDayTimes: 1
    limitMinHour: 0
    limitMaxHour: 24
  - eventName: "\u7A81\u53D1\u4E8B\u4EF6-\u4E34\u65F6\u4EFB\u52A1"
    id: 
    eventType: 2
    costTime: 20
    desc: "\u5C01\u63A7\u4E45\u4E86\uFF0C\u4F60\u8D8A\u6765\u8D8A\u6CA1\u7CBE\u6253\u91C7\uFF0C\u672C\u60F3\u5728\u6C99\u53D1\u4E0A\u762B\u5750\u4E00\u4F1A\u513F\uFF0CQA\u7FA4\u7684\u4E00\u6761\u6D88\u606F\u5C06\u4F60\u62C9\u56DE\u4E86\u7535\u8111\u684C\u2026\u2026"
    changeInfection: 0
    changeEMO: 20
    changeHealth: 0
    changeMoney: 10
    beInterruptType: 3
    beInterruptEventType: 
    interruptOtherType: 1
    interruptOtherEventType: 030000000600000007000000
    emergencyProbability: 0.641
    addItemList: []
    oneDayTimes: -1
    limitMinHour: 0
    limitMaxHour: 24
  - eventName: "\u7A81\u53D1\u4E8B\u4EF6-\u732B\u54AA\u95EF\u7978"
    id: 
    eventType: 2
    costTime: 20
    desc: "\u6572\u5B8C\u8868\u683C\u7684\u6700\u540E\u4E00\u884C\uFF0C\u4F60\u957F\u957F\u677E\u4E86\u53E3\u6C14\uFF0C\u8D77\u8EAB\u7ED9\u81EA\u5DF1\u5012\u4E86\u676F\u6C34\u51C6\u5907\u4F11\u606F\u4E00\u4F1A\u513F\uFF0C\u4E00\u8F6C\u8EAB\u5374\u77A7\u89C1\u81EA\u5BB6\u7684\u732B\u4E0D\u77E5\u4F55\u65F6\u8DF3\u4E0A\u4E86\u7535\u8111\u684C\uFF0C\u524D\u722A\u597D\u5DE7\u4E0D\u5DE7\u5730\u8E29\u4E2D\u4E86\u201Cdelete\u201D\u952E\u2026\u2026\u4F60\u773C\u89C1\u7740\u5C4F\u5E55\u4E0A\u7684\u5B57\u7B26\u4E00\u4E2A\u4E00\u4E2A\u6D88\u5931\uFF0C\u6251\u8FC7\u53BB\u5C31\u5C06\u5C0F\u732B\u62CE\u4E86\u8D77\u6765\uFF0C\u4F46\u5DE5\u4F5C\u65F6\u95F4\u4E0D\u5F97\u4E0D\u5EF6\u957F\u4E86\u3002"
    changeInfection: 0
    changeEMO: 20
    changeHealth: 0
    changeMoney: -15
    beInterruptType: 3
    beInterruptEventType: 
    interruptOtherType: 1
    interruptOtherEventType: 01000000
    emergencyProbability: 0.442
    addItemList: []
    oneDayTimes: -1
    limitMinHour: 0
    limitMaxHour: 24
  - eventName: "\u7A81\u53D1\u4E8B\u4EF6-\u516C\u53F8\u7269\u8D44"
    id: 
    eventType: 2
    costTime: 30
    desc: "\u4F60\u5C31\u804C\u7684\u516C\u53F8\u6D3E\u4EBA\u9001\u6765\u4E86\u7269\u8D44\uFF0C\u540C\u4E8B\u65E9\u65E9\u5728\u5DE5\u4F5C\u7FA4\u91CC\u6652\u51FA\u4E86\u56FE\u7247\uFF0C\u7EFF\u6CB9\u6CB9\u7684\u852C\u83DC\u3001\u9EC4\u6A59\u6A59\u7684\u6A58\u5B50\u3001\u4E2A\u5934\u4E0D\u5C0F\u7684\u68AD\u5B50\u87F9\u548C\u5E26\u9C7C\u2026\u2026\u8BA9\u4EBA\u4E00\u770B\u4FBF\u5FC3\u60C5\u6109\u60A6\u3002\u7535\u8BDD\u94C3\u58F0\u4E00\u54CD\uFF0C\u4F60\u4FBF\u6682\u505C\u5DE5\u4F5C\u8D77\u8EAB\u51FA\u95E8\u4E86\u3002"
    changeInfection: 0
    changeEMO: -30
    changeHealth: 0
    changeMoney: 0
    beInterruptType: 3
    beInterruptEventType: 
    interruptOtherType: 0
    interruptOtherEventType: 
    emergencyProbability: 0.2
    addItemList:
    - itemName: "\u4E0A\u6D77\u9752"
      amount: 2
    - itemName: "\u897F\u7EA2\u67FF"
      amount: 2
    - itemName: "\u732A\u8089"
      amount: 3
    - itemName: "\u725B\u8089"
      amount: 3
    oneDayTimes: 1
    limitMinHour: 0
    limitMaxHour: 24
  - eventName: "\u7A81\u53D1\u4E8B\u4EF6-\u793E\u533A\u56E2\u8D2D"
    id: 
    eventType: 2
    costTime: 30
    desc: "\u5FAE\u4FE1\u4F20\u51FA\u4E00\u8FDE\u4E32\u6D88\u606F\u63D0\u793A\u97F3\uFF0C\u4F60\u505C\u4E0B\u624B\u4E0A\u7684\u6D3B\u513F\u70B9\u5F00\u95EA\u70C1\u7684\u56FE\u6807\uFF0C\u53D1\u73B0\u662F\u597D\u5FC3\u7684\u90BB\u5C45\u5C06\u5176\u62C9\u8FDB\u4E86\u65B0\u7684\u793E\u533A\u56E2\u8D2D\u7FA4\uFF0C\u56E2\u7684\u8FD8\u662F\u65B0\u8FD1\u786C\u901A\u8D27\u53EF\u53E3\u53EF\u4E50\uFF0C\u4F60\u773C\u524D\u4E00\u4EAE\uFF0C\u4E0D\u5F97\u4E0D\u5728\u53EF\u4E50\u9762\u524D\u6295\u964D\uFF0C\u6682\u505C\u5DE5\u4F5C\u8DDF\u56E2\u3002"
    changeInfection: 0.05
    changeEMO: -10
    changeHealth: 0
    changeMoney: -50
    beInterruptType: 3
    beInterruptEventType: 
    interruptOtherType: 0
    interruptOtherEventType: 
    emergencyProbability: 0.45
    addItemList:
    - itemName: "\u53EF\u4E50"
      amount: 3
    oneDayTimes: 2
    limitMinHour: 0
    limitMaxHour: 24
  - eventName: "\u7A81\u53D1\u4E8B\u4EF6-\u90BB\u5C45\u6C42\u836F"
    id: 
    eventType: 2
    costTime: 20
    desc: "\u540C\u680B\u697C\u6709\u5C0F\u5B69\u5B50\u53D1\u70E7\uFF0C\u6BCD\u4EB2\u5728\u793E\u533A\u7FA4\u91CC\u6C42\u9000\u70E7\u836F\uFF0C\u4F60\u5FFD\u7136\u60F3\u8D77\u81EA\u5DF1\u4EE5\u524D\u4E70\u8FC7\u7684\u611F\u5192\u836F\u8FD8\u6CA1\u5403\u5B8C\uFF0C\u4FBF\u6682\u505C\u5DE5\u4F5C\u5728\u5BB6\u91CC\u7FFB\u627E\u4E86\u4E00\u9635\u3002\u5F53\u4F60\u62FF\u7740\u836F\u51C6\u5907\u5728\u7FA4\u91CC@\u90A3\u4F4D\u6BCD\u4EB2\u65F6\uFF0C\u53D1\u73B0\u65E9\u5DF2\u6709\u4EBA\u5C06\u9000\u70E7\u836F\u653E\u5230\u4E86\u90A3\u5BB6\u4EBA\u95E8\u53E3\u3002"
    changeInfection: 0
    changeEMO: -10
    changeHealth: 0
    changeMoney: 0
    beInterruptType: 3
    beInterruptEventType: 
    interruptOtherType: 0
    interruptOtherEventType: 
    emergencyProbability: 0.104
    addItemList: []
    oneDayTimes: 1
    limitMinHour: 0
    limitMaxHour: 24
  - eventName: "\u7A81\u53D1\u4E8B\u4EF6-\u6838\u9178\u68C0\u67E5"
    id: 
    eventType: 2
    costTime: 30
    desc: "\u201C\u5B9D\u8D1D\u513F\u4EEC\uFF0C\u4E0B\u697C\u505A\u6838\u9178\u5566\u2026\u2026\u201D\u6269\u97F3\u5668\u5608\u6742\u7684\u7535\u6D41\u58F0\u63A9\u76D6\u4E0D\u4F4F\u5927\u767D\u55D3\u97F3\u7684\u751C\u7F8E\uFF0C\u4F60\u779F\u4E86\u4E00\u773C\u7535\u8111\u53F3\u4E0B\u89D2\uFF0C\u624D\u53D1\u73B0\u5230\u4E86\u901A\u77E5\u7684\u6838\u9178\u65F6\u95F4\uFF0C\u6682\u505C\u5DE5\u4F5C\u4E0B\u697C\u65F6\u4F60\u5728\u7535\u68AF\u91CC\u60F3\u7740\uFF1A\u201C\u90A3\u4E2A\u5929\u5929\u5728\u697C\u9053\u91CC\u62FF\u7740\u5587\u53ED\u5FAA\u73AF\u6572\u95E8\u7684\u5927\u53D4\u6CA1\u51FA\u73B0\u554A\uFF0C\u4E0D\u77E5\u9053\u662F\u4E0D\u662F\u5FD9\u522B\u7684\u4E8B\u60C5\u53BB\u4E86\u2026\u2026\u201D"
    changeInfection: -0.1
    changeEMO: 40
    changeHealth: 0
    changeMoney: 0
    beInterruptType: 3
    beInterruptEventType: 
    interruptOtherType: 0
    interruptOtherEventType: 
    emergencyProbability: 0.663
    addItemList: []
    oneDayTimes: 1
    limitMinHour: 0
    limitMaxHour: 24
  - eventName: "\u7A81\u53D1\u4E8B\u4EF6-\u6297\u539F\u81EA\u6D4B"
    id: 
    eventType: 2
    costTime: 15
    desc: "\u201C\u8BF7\u8FD8\u672A\u4E0A\u4F20\u6297\u539F\u7ED3\u679C\u7684\u5C45\u6C11\u8D76\u7D27\u5B8C\u6210\u6297\u539F\u81EA\u6D4B\u2026\u2026\u201D\u793E\u533A\u5927\u7FA4\u91CC\u4E00\u8FDE\u5F39\u51FA\u597D\u51E0\u6761\u76F8\u540C\u7684\u6D88\u606F\uFF0C\u6BCF\u4E00\u6761\u90FD@\u5168\u5458\u3002\u4F60\u8BA4\u547D\u5730\u505C\u4E0B\u5DE5\u4F5C\uFF0C\u62FF\u51FA\u957F\u957F\u7684\u91C7\u6837\u5668\u6233\u8FDB\u81EA\u5DF1\u9F3B\u5B54\u2026\u2026"
    changeInfection: -0.1
    changeEMO: 30
    changeHealth: 0
    changeMoney: 0
    beInterruptType: 3
    beInterruptEventType: 
    interruptOtherType: 0
    interruptOtherEventType: 
    emergencyProbability: 1
    addItemList: []
    oneDayTimes: 1
    limitMinHour: 0
    limitMaxHour: 24
  - eventName: "\u7A81\u53D1\u4E8B\u4EF6-\u5C0F\u533A\u6838\u9178\u68C0\u6D4B\u51FA\u9633\u6027"
    id: 
    eventType: 2
    costTime: 20
    desc: "\u5C0F\u533A\u6838\u9178\u68C0\u6D4B\u51FA\u9633\u6027"
    changeInfection: 0.33
    changeEMO: 40
    changeHealth: 0
    changeMoney: 0
    beInterruptType: 3
    beInterruptEventType: 
    interruptOtherType: 0
    interruptOtherEventType: 
    emergencyProbability: 0.14
    addItemList: []
    oneDayTimes: -1
    limitMinHour: 0
    limitMaxHour: 24
  - eventName: "\u7A81\u53D1\u4E8B\u4EF6-\u5C0F\u533A\u6297\u539F\u5F02\u5E38"
    id: 
    eventType: 2
    costTime: 20
    desc: "\u5C0F\u533A\u6297\u539F\u5F02\u5E38"
    changeInfection: 0.25
    changeEMO: 30
    changeHealth: 0
    changeMoney: 0
    beInterruptType: 3
    beInterruptEventType: 
    interruptOtherType: 0
    interruptOtherEventType: 
    emergencyProbability: 0.13
    addItemList: []
    oneDayTimes: -1
    limitMinHour: 0
    limitMaxHour: 24
  - eventName: "\u7A81\u53D1\u4E8B\u4EF6-\u5C0F\u533A\u91CC\u7A81\u7136\u4F20\u51FA\u4E86\u5E7F\u573A\u821E\u7684\u58F0\u97F3"
    id: 
    eventType: 2
    costTime: 20
    desc: "\u5C0F\u533A\u91CC\u7A81\u7136\u4F20\u51FA\u4E86\u5E7F\u573A\u821E\u7684\u58F0\u97F3\uFF0C\u90BB\u5C45\u4EEC\u7EB7\u7EB7\u5728\u5FAE\u4FE1\u7FA4\u91CC\u8C34\u8D23\u8D77\u4E86\u8FD9\u4E9B\u4EBA"
    changeInfection: 0.15
    changeEMO: 30
    changeHealth: 0
    changeMoney: 0
    beInterruptType: 3
    beInterruptEventType: 
    interruptOtherType: 0
    interruptOtherEventType: 
    emergencyProbability: 0.1
    addItemList: []
    oneDayTimes: -1
    limitMinHour: 0
    limitMaxHour: 24
  - eventName: "\u7A81\u53D1\u4E8B\u4EF6-tony\u8001\u5E08"
    id: 
    eventType: 2
    costTime: 60
    desc: "\u6BCF\u4E2A\u9694\u79BB\u5728\u5BB6\u7684\u7537\u58EB\u6700\u6E34\u671B\u89C1\u5230\u7684\u4EBA\uFF0C\u53EF\u4EE5\u56E2\u8D2D\u4E00\u5929\u7684\u670D\u52A1
      \uFF0C\u4F46\u80FD\u5426\u6210\u529F\u53D6\u51B3\u4E8E\u5929\u65F6\u5730\u5229\u4EBA\u548C\u3002"
    changeInfection: 0.05
    changeEMO: -10
    changeHealth: 0
    changeMoney: -200
    beInterruptType: 3
    beInterruptEventType: 
    interruptOtherType: 0
    interruptOtherEventType: 
    emergencyProbability: 0.13
    addItemList: []
    oneDayTimes: 1
    limitMinHour: 11
    limitMaxHour: 15
