%YAML 1.1
%TAG !u! tag:unity3d.com,2011:
--- !u!114 &11400000
MonoBehaviour:
  m_ObjectHideFlags: 0
  m_CorrespondingSourceObject: {fileID: 0}
  m_PrefabInstance: {fileID: 0}
  m_PrefabAsset: {fileID: 0}
  m_GameObject: {fileID: 0}
  m_Enabled: 1
  m_EditorHideFlags: 0
  m_Script: {fileID: 11500000, guid: 6fde00efb4a0c274f840f87a335dc690, type: 3}
  m_Name: GameConfig
  m_EditorClassIdentifier: 
  freeChance: 0.1
  addFreeChance: 0.01
  quarantineDays: 07000000020000000200000007000000
