%YAML 1.1
%TAG !u! tag:unity3d.com,2011:
--- !u!114 &11400000
MonoBehaviour:
  m_ObjectHideFlags: 0
  m_CorrespondingSourceObject: {fileID: 0}
  m_PrefabInstance: {fileID: 0}
  m_PrefabAsset: {fileID: 0}
  m_GameObject: {fileID: 0}
  m_Enabled: 1
  m_EditorHideFlags: 0
  m_Script: {fileID: 11500000, guid: 8c0c75ff4c370074f8f1684fe24c0501, type: 3}
  m_Name: RefrigeratorConfig
  m_EditorClassIdentifier: 
  upSize: {x: 4, y: 4}
  upObstacleConfigs:
  - obstaclePos: {x: 1, y: 1}
    hideLevel: 1
  - obstaclePos: {x: 2, y: 3}
    hideLevel: 2
  - obstaclePos: {x: 3, y: 3}
    hideLevel: 6
  downSize: {x: 6, y: 6}
  downObstacleConfigs:
  - obstaclePos: {x: 1, y: 3}
    hideLevel: 4
  - obstaclePos: {x: 2, y: 4}
    hideLevel: 2
  - obstaclePos: {x: 3, y: 1}
    hideLevel: 1
  - obstaclePos: {x: 4, y: 2}
    hideLevel: 3
  - obstaclePos: {x: 6, y: 5}
    hideLevel: 5
  - obstaclePos: {x: 5, y: 5}
    hideLevel: 6
  initRes:
  - itemName: "\u9E21\u86CB"
    amount: 6
  - itemName: "\u5377\u5FC3\u83DC"
    amount: 1
  - itemName: "\u767D\u83DC"
    amount: 1
  - itemName: "\u5C0F\u8471"
    amount: 1
  - itemName: "\u725B\u5976"
    amount: 1
  - itemName: "\u571F\u8C46"
    amount: 1
  - itemName: "\u897F\u5170\u82B1"
    amount: 1
